Engine/Binaries/Win64/UE4Game.exe	2021-12-14T18:46:42.605Z
Engine/Binaries/Win64/OpenImageDenoise.dll	2021-12-14T18:45:09.278Z
Engine/Binaries/Win64/tbb12.dll	2021-12-14T18:45:18.326Z
Engine/Extras/Redist/en-us/UE4PrereqSetup_x64.exe	2021-12-14T18:55:17.142Z
Engine/Binaries/ThirdParty/Oculus/OVRPlugin/OVRPlugin/Win64/OVRPlugin.dll	2021-12-14T13:54:14.797Z
Engine/Binaries/ThirdParty/DbgHelp/dbghelp.dll	2021-12-14T13:53:48.671Z
Engine/Binaries/ThirdParty/PhysX3/Win64/VS2015/PxFoundationPROFILE_x64.dll	2021-12-14T13:54:42.423Z
Engine/Binaries/ThirdParty/PhysX3/Win64/VS2015/PxPvdSDKPROFILE_x64.dll	2021-12-14T13:54:43.065Z
Engine/Binaries/ThirdParty/PhysX3/Win64/VS2015/PhysX3PROFILE_x64.dll	2021-12-14T13:54:42.285Z
Engine/Binaries/ThirdParty/PhysX3/Win64/VS2015/PhysX3CookingPROFILE_x64.dll	2021-12-14T13:54:42.263Z
Engine/Binaries/ThirdParty/PhysX3/Win64/VS2015/PhysX3CommonPROFILE_x64.dll	2021-12-14T13:54:39.373Z
Engine/Binaries/ThirdParty/PhysX3/Win64/VS2015/APEX_ClothingPROFILE_x64.dll	2021-12-14T13:54:30.280Z
Engine/Binaries/ThirdParty/PhysX3/Win64/VS2015/APEX_LegacyPROFILE_x64.dll	2021-12-14T13:54:34.303Z
Engine/Binaries/ThirdParty/PhysX3/Win64/VS2015/ApexFrameworkPROFILE_x64.dll	2021-12-14T13:54:38.623Z
Engine/Binaries/ThirdParty/PhysX3/Win64/VS2015/NvClothPROFILE_x64.dll	2021-12-14T13:54:38.757Z
Engine/Binaries/ThirdParty/Ogg/Win64/VS2015/libogg_64.dll	2021-12-14T13:54:14.806Z
Engine/Binaries/ThirdParty/Vorbis/Win64/VS2015/libvorbis_64.dll	2021-12-14T13:55:02.231Z
Engine/Binaries/ThirdParty/Vorbis/Win64/VS2015/libvorbisfile_64.dll	2021-12-14T13:55:02.233Z
Engine/Binaries/ThirdParty/NVIDIA/NVaftermath/Win64/GFSDK_Aftermath_Lib.x64.dll	2021-12-14T13:54:07.442Z
Engine/Binaries/ThirdParty/OpenXR/win64/openxr_loader.dll	2021-12-14T13:54:14.862Z
Engine/Binaries/ThirdParty/OpenVR/OpenVRv1_5_17/Win64/openvr_api.dll	2021-12-14T13:54:14.846Z
Engine/Binaries/ThirdParty/NVIDIA/GeForceNOW/Win64/GfnRuntimeSdk.dll	2021-12-14T13:54:07.431Z
Engine/Binaries/ThirdParty/Windows/WinPixEventRuntime/x64/WinPixEventRuntime.dll	2021-12-14T13:55:02.469Z
Engine/Binaries/ThirdParty/Windows/XAudio2_9/x64/xaudio2_9redist.dll	2021-12-14T13:55:05.500Z
Shaman.exe	2024-02-12T20:22:12.852Z
